<svg xmlns="http://www.w3.org/2000/svg" width="502" height="72" viewBox="0 0 502 72">
    <g fill="none" fill-rule="evenodd">
        <g transform="translate(3 5.725)">
            <ellipse cx="31.204" cy="31.287" fill="#FFF" stroke="#252525" stroke-width="6" rx="31.204" ry="31.204"/>
            <path fill="#252525" d="M31.265 20.769c-6.946 0-12.877 4.32-15.28 10.418 2.403 6.098 8.334 10.418 15.28 10.418 6.945 0 12.876-4.32 15.28-10.418-2.404-6.098-8.335-10.418-15.28-10.418zm0 17.363a6.948 6.948 0 0 1-6.946-6.945 6.948 6.948 0 0 1 6.946-6.945 6.948 6.948 0 0 1 6.945 6.945 6.948 6.948 0 0 1-6.945 6.945zm0-11.112a4.162 4.162 0 0 0-4.167 4.167 4.162 4.162 0 0 0 4.167 4.167 4.162 4.162 0 0 0 4.167-4.167 4.162 4.162 0 0 0-4.167-4.167z"/>
        </g>
        <g transform="translate(47.02 .636)">
            <ellipse cx="15.602" cy="15.602" fill="#187FB8" rx="15.602" ry="15.602"/>
            <path fill="#FFF" d="M10.276 13.653h2.243v7.11h-2.243v-7.11zm8.373-.068c1.595 0 2.848 1.022 2.848 3.225v3.952h-2.544v-3.679c0-.962-.398-1.62-1.274-1.62-.669 0-1.041.444-1.214.871-.065.154-.055.368-.055.581v3.847h-2.52s.032-6.516 0-7.109h2.52v1.116c.149-.488.954-1.184 2.24-1.184zm-7.293-3.288c.828 0 1.337.531 1.353 1.233 0 .688-.525 1.234-1.369 1.234h-.016c-.812 0-1.339-.543-1.339-1.232 0-.703.542-1.235 1.37-1.235z"/>
        </g>
        <g transform="translate(215.15 5.09)">
            <ellipse cx="31.204" cy="31.287" fill="#FFF" stroke="#DADFE2" stroke-width="6" rx="31.204" ry="31.204"/>
            <path fill="#DADFE2" d="M34.876 31.497a5.127 5.127 0 0 0 5.13-5.129 5.127 5.127 0 0 0-5.13-5.129 5.127 5.127 0 0 0-5.129 5.129 5.127 5.127 0 0 0 5.13 5.129zm-11.54-2.565v-3.846h-2.564v3.846h-3.847v2.565h3.847v3.847h2.564v-3.847h3.847v-2.565h-3.847zm11.54 5.13c-3.423 0-10.257 1.718-10.257 5.128v2.565h20.515V39.19c0-3.41-6.834-5.129-10.258-5.129z"/>
        </g>
        <g transform="translate(259.17)">
            <ellipse cx="15.602" cy="15.602" fill="#DADFE2" rx="15.602" ry="15.602"/>
            <path fill="#FFF" d="M10.276 13.653h2.243v7.11h-2.243v-7.11zm8.373-.068c1.595 0 2.848 1.022 2.848 3.225v3.952h-2.544v-3.679c0-.962-.398-1.62-1.274-1.62-.669 0-1.041.444-1.214.871-.065.154-.055.368-.055.581v3.847h-2.52s.032-6.516 0-7.109h2.52v1.116c.149-.488.954-1.184 2.24-1.184zm-7.293-3.288c.828 0 1.337.531 1.353 1.233 0 .688-.525 1.234-1.369 1.234h-.016c-.812 0-1.339-.543-1.339-1.232 0-.703.542-1.235 1.37-1.235z"/>
        </g>
        <g transform="translate(426.664 3.18)">
            <ellipse cx="31.874" cy="32.455" fill="#FFF" stroke="#DADFE2" stroke-width="6" rx="31.874" ry="31.874"/>
            <path fill="#DADFE2" d="M40.62 23.148H22.568a2.254 2.254 0 0 0-2.245 2.256l-.012 13.54a2.263 2.263 0 0 0 2.257 2.257h18.054a2.263 2.263 0 0 0 2.256-2.257v-13.54a2.263 2.263 0 0 0-2.256-2.256zm0 4.513l-9.026 5.642-9.027-5.642v-2.257l9.027 5.642 9.027-5.642v2.257z"/>
        </g>
        <g transform="translate(470.013)">
            <ellipse cx="15.937" cy="15.937" fill="#DADFE2" rx="15.937" ry="15.937"/>
            <g fill="#FFF">
                <path d="M13.658 20.157c-2.257 0-4.086-1.852-4.086-4.111 0-2.26 1.83-4.106 4.086-4.106 1.058 0 2.024.402 2.748 1.062-.855.81-.826.854-1.164 1.192-.417-.351-.876-.603-1.584-.603-1.342 0-2.387 1.09-2.387 2.432 0 1.342 1.045 2.464 2.387 2.464 1.323 0 1.862-.637 2.21-1.594h-2.162V15.3h3.876c.27 1.912-.552 4.857-3.924 4.857zM22.312 16.256h-1.275v1.594h-.956v-1.594h-1.594V15.3h1.594v-1.275h.956V15.3h1.275z"/>
            </g>
        </g>
        <g fill="#DADFE2" transform="translate(115.436 34.351)">
            <circle cx="4.201" cy="4.201" r="4.201"/>
            <circle cx="22.605" cy="4.201" r="4.201"/>
            <ellipse cx="41.009" cy="4.201" rx="4.201" ry="4.201"/>
            <circle cx="59.412" cy="4.201" r="4.201"/>
        </g>
        <g fill="#DADFE2" transform="translate(326.95 34.987)">
            <ellipse cx="4.201" cy="4.201" rx="4.201" ry="4.201"/>
            <ellipse cx="22.605" cy="4.201" rx="4.201" ry="4.201"/>
            <ellipse cx="41.009" cy="4.201" rx="4.201" ry="4.201"/>
            <ellipse cx="59.412" cy="4.201" rx="4.201" ry="4.201"/>
        </g>
    </g>
</svg>
