<?xml version="1.0" encoding="UTF-8"?>
<svg width="90px" height="36px" viewBox="0 0 90 36" version="1.1" xmlns="http://www.w3.org/2000/svg" xmlns:xlink="http://www.w3.org/1999/xlink">
    <!-- Generator: Sketch 45.2 (43514) - http://www.bohemiancoding.com/sketch -->
    <title>logo/color/primary/full</title>
    <desc>Created with Sketch.</desc>
    <defs></defs>
    <g id="app-macos" stroke="none" stroke-width="1" fill="none" fill-rule="evenodd">
        <g id="app-login" transform="translate(-555.000000, -66.000000)">
            <g id="Group" transform="translate(400.000000, 34.000000)">
                <g id="logo/color/primary/full" transform="translate(155.000000, 32.000000)">
                    <g id="logo">
                        <g id="symbol">
                            <path d="M22.160174,23.963359 L22.160174,23.963359 L22.160174,23.963293 C20.5998436,19.6765969 15.8600419,17.4663767 11.5733458,19.026641 C7.2865837,20.5868392 5.07636344,25.3267731 6.63662775,29.6134692 C6.65810352,29.6725441 6.68024009,29.7313546 6.70297137,29.7897687 C7.49876432,31.8357159 9.09490969,33.4557159 11.0872665,34.3489758 C11.0872665,34.3489758 11.0877291,34.3492401 11.0879273,34.3493062 C11.154337,34.3792401 11.2192269,34.4122797 11.2869581,34.4390419 C13.3161211,35.2411123 15.5270683,35.6827863 17.8414295,35.6827863 C21.7694471,35.6827863 25.4006366,34.4130727 28.347707,32.2619934 C29.0242269,31.7681828 28.9175088,30.7254515 28.1522445,30.3851432 C25.4640066,29.1895705 23.2459229,26.9464427 22.160174,23.963359" id="Fill-1" fill="#3BD4FF"></path>
                            <path d="M30.8161784,18.3558502 C30.574196,19.396467 29.3305176,19.8491101 28.4761784,19.2075463 C27.4873018,18.4647489 26.6953414,17.4363568 26.2407819,16.1875242 C25.7862225,14.9386256 25.7319053,13.6417533 26.0120154,12.4371278 C26.2539978,11.396511 27.4976762,10.9438678 28.3519493,11.5854317 C29.3408921,12.328163 30.1328524,13.3566211 30.5874119,14.6054537 C31.0419714,15.8543524 31.0963546,17.1512247 30.8161784,18.3558502 M34.7434031,12.1134714 C32.3689758,5.10463877 25.7572797,0.0503656388 17.9580727,0.00040969163 C8.39051762,-0.0609118943 0.432522026,7.48765639 0.0172797357,17.0464229 C-0.104438326,19.8483172 0.420825991,22.5148811 1.45562775,24.909859 C1.84694934,25.8154758 3.17573789,25.6634273 3.36049559,24.6943084 C4.07738987,20.9344626 6.69835903,17.6365771 10.5562665,16.2323921 C12.2148568,15.6287577 13.9232048,15.4402996 15.5676542,15.6138238 C17.2396586,15.7902555 17.7472797,17.9822379 16.3387335,18.9003436 C14.8179846,19.891533 13.0765308,20.5987797 11.1758921,20.9339339 C11.1663106,20.9355859 11.1567952,20.9372379 11.1472137,20.9389559 C10.2076982,21.1025683 9.99637665,22.3535154 10.8339317,22.8095286 C14.0046145,24.5357841 17.7602974,25.2395947 21.5919714,24.5639339 C22.3209581,24.4354097 23.0302533,24.2607621 23.7174119,24.0436916 C24.5336233,23.7858502 25.4196806,24.0879648 25.9033811,24.7942203 C26.9657379,26.3454317 28.5139097,27.461511 30.2566189,28.006467 C31.4011784,28.3644185 32.6440639,27.8743744 33.2498789,26.8394405 C34.7961344,24.1978546 35.6827863,21.1233833 35.6827863,17.8414229 C35.6827863,15.8378326 35.3524559,13.9113568 34.7434031,12.1134714" id="Fill-3" fill="#000000"></path>
                        </g>
                        <g id="text" transform="translate(49.162996, 13.017621)" fill="#000000">
                            <path d="M6.20164097,6.17292952 C5.83443833,6.54013216 5.40254405,6.71861233 4.88124449,6.71861233 C4.36027533,6.71861233 3.9317511,6.54046256 3.57122247,6.17385463 C3.20996696,5.8069163 3.03426211,5.35592511 3.03426211,4.79497797 C3.03426211,4.24830396 3.20930617,3.81046256 3.56937225,3.45640969 C3.9301652,3.1014978 4.35921806,2.92896476 4.88124449,2.92896476 C5.40353524,2.92896476 5.83609031,3.10176211 6.20349119,3.45726872 C6.56943833,3.81165198 6.74732379,4.24922907 6.74732379,4.79497797 C6.74732379,5.355 6.56884361,5.80572687 6.20164097,6.17292952 M8.35767621,1.33096916 C7.42939427,0.455484581 6.25979075,0.0115638767 4.88124449,0.0115638767 C3.51531938,0.0115638767 2.35212555,0.455484581 1.42384361,1.33096916 C0.493050661,2.209163 0.0211123348,3.37460352 0.0211123348,4.79497797 C0.0211123348,6.21502203 0.492654185,7.38977974 1.42258811,8.28654185 C2.35060573,9.18198238 3.51426211,9.63601322 4.88124449,9.63601322 C6.24769824,9.63601322 7.41446035,9.18211454 8.34901982,8.28700441 C9.28562775,7.38997797 9.76047357,6.21515419 9.76047357,4.79497797 C9.76047357,3.37460352 9.28853524,2.20922907 8.35767621,1.33096916" id="Fill-6"></path>
                            <path d="M18.7014648,0.344914097 C18.3620815,0.123680617 17.8964868,0.0115440529 17.3177643,0.0115440529 C16.3554515,0.0115440529 15.6207819,0.521610132 15.1259141,1.53017841 L15.1259141,1.4415 C15.1259141,1.06147797 14.9748568,0.736037445 14.6768392,0.474165198 C14.384967,0.21804185 14.029196,0.0881960352 13.6193062,0.0881960352 C13.2211123,0.0881960352 12.8711564,0.22180837 12.5792181,0.485332599 C12.2841079,0.751698238 12.1271696,1.07119163 12.1126982,1.4415 L12.1128304,8.21251322 C12.1271696,8.57661013 12.2841079,8.8961696 12.5790859,9.16220485 C12.8706938,9.42572907 13.2206498,9.55934141 13.6193062,9.55934141 C14.029196,9.55934141 14.384967,9.42949559 14.6769053,9.17337225 C14.9748568,8.91156608 15.1259141,8.58612555 15.1259141,8.20603744 L15.125848,6.00592731 C15.1505617,4.87570705 15.3081608,4.03722687 15.5944163,3.51361454 C15.8656718,3.01702863 16.3228084,2.77564097 16.9919934,2.77564097 C17.0383811,2.77564097 17.1396806,2.7787467 17.3013106,2.78509031 C17.4546145,2.79143392 17.5728965,2.79480396 17.6434692,2.79480396 C17.9938877,2.79480396 18.3143722,2.70202863 18.595804,2.51898899 C18.8907819,2.32749119 19.0701872,2.04467181 19.1295925,1.67409912 C19.214967,1.03365859 19.0709802,0.5865 18.7014648,0.344914097" id="Fill-8"></path>
                            <path d="M28.4978524,6.50629295 C28.2004956,6.26563216 27.8721476,6.14371586 27.5219934,6.14371586 C27.1813546,6.14371586 26.8604736,6.22842952 26.5710463,6.39382599 C26.1758921,6.60937665 25.7576101,6.71860573 25.3278304,6.71860573 C24.7636454,6.71860573 24.2948128,6.54719604 23.8943722,6.19446476 C23.5001432,5.84761454 23.3085132,5.40871586 23.3085132,4.85252643 L23.3085132,4.79503744 C23.3085132,4.23911233 23.5001432,3.80021366 23.8943722,3.45309912 C24.295011,3.10043392 24.7639097,2.92895815 25.3278304,2.92895815 C25.7576762,2.92895815 26.1759581,3.0382533 26.5682048,3.25215198 C26.8604075,3.41913436 27.1812885,3.50378194 27.5219934,3.50378194 C27.8726762,3.50378194 28.2010242,3.38186564 28.4979846,3.14120485 L28.5107379,3.12964097 C28.8132489,2.82712996 28.9487115,2.44182159 28.9131608,1.98428855 C28.8771476,1.52523568 28.6756718,1.1677467 28.3178524,0.924046256 C27.475011,0.318561674 26.4689537,0.0115572687 25.3278304,0.0115572687 C23.9640198,0.0115572687 22.7667952,0.457394273 21.7693282,1.33677753 C20.7657819,2.22138106 20.2569714,3.38497137 20.2569714,4.79503744 L20.2569714,4.85252643 C20.2569714,6.26285683 20.7657819,7.42644714 21.7693282,8.31078634 C22.7663987,9.19010352 23.9636894,9.63600661 25.3278304,9.63600661 C26.4694824,9.63600661 27.4754075,9.3290022 28.3144163,8.72589648 C28.6756718,8.48014758 28.8771476,8.12265859 28.9131608,7.66307709 C28.9487115,7.20574229 28.813315,6.82043392 28.5107379,6.51792291 L28.4978524,6.50629295 Z" id="Fill-10"></path>
                            <path d="M37.2134141,6.30095815 C36.8140969,6.72379956 36.3488326,6.92943833 35.790859,6.92943833 C35.1967401,6.92943833 34.7361013,6.73172907 34.382511,6.32501101 C34.0229736,5.91155286 33.8481278,5.42368943 33.8481278,4.833337 C33.8481278,4.25117841 34.0279295,3.74937225 34.382511,3.341663 C34.7361013,2.93501101 35.1967401,2.73730176 35.790859,2.73730176 C36.3485683,2.73730176 36.8138987,2.94294053 37.213348,3.36571586 C37.614978,3.791663 37.8102423,4.27172907 37.8102423,4.833337 C37.8102423,5.39534141 37.614978,5.87540749 37.2134141,6.30095815 M40.3552863,0.474151982 C40.0634141,0.218028634 39.7075771,0.0881828194 39.2976872,0.0881828194 C38.8994273,0.0881828194 38.5495374,0.221795154 38.2575991,0.485319383 C38.0392731,0.682367841 37.8966079,0.908491189 37.8313216,1.16269824 C37.5257048,0.798072687 37.1586344,0.525495595 36.7356608,0.349856828 C36.1936784,0.125385463 35.7017841,0.011530837 35.2734581,0.011530837 C34.0334141,0.011530837 32.9595595,0.449834802 32.0818943,1.31421806 C31.2036344,2.17919604 30.7582599,3.35672907 30.7582599,4.81417401 C30.7582599,6.28470264 31.2036344,7.46871145 32.0818282,8.33335903 C32.9592291,9.19774229 34.0330176,9.63604626 35.2734581,9.63604626 C35.820793,9.63604626 36.3584802,9.50435022 36.8715859,9.24452643 C37.2489648,9.05322687 37.5705066,8.80014317 37.8317181,8.48924009 C37.8972026,8.74034141 38.0397357,8.96580396 38.257467,9.16219163 C38.5490749,9.42571586 38.8990308,9.55939427 39.2976872,9.55939427 C39.7075771,9.55939427 40.0634141,9.42954846 40.3553524,9.17335903 C40.6532379,8.91155286 40.8042952,8.58604626 40.8042952,8.20602423 L40.8042952,1.44148678 C40.8042952,1.06146476 40.6532379,0.736024229 40.3552863,0.474151982" id="Fill-12"></path>
                        </g>
                    </g>
                </g>
            </g>
        </g>
    </g>
</svg>