<svg xmlns="http://www.w3.org/2000/svg" width="122" height="110" viewBox="0 0 122 110">
    <g fill="none" fill-rule="evenodd">
        <g transform="translate(3 8)">
            <ellipse cx="49.053" cy="49.183" fill="#FFF" stroke="#252525" stroke-width="6" rx="49.053" ry="49.053"/>
            <path fill="#252525" d="M49.148 32.649c-10.918 0-20.242 6.79-24.02 16.377 3.778 9.586 13.102 16.377 24.02 16.377s20.242-6.79 24.02-16.377c-3.778-9.586-13.102-16.377-24.02-16.377zm0 27.295c-6.027 0-10.918-4.891-10.918-10.918 0-6.027 4.891-10.918 10.918-10.918 6.027 0 10.918 4.891 10.918 10.918 0 6.027-4.891 10.918-10.918 10.918zm0-17.469a6.542 6.542 0 0 0-6.55 6.551 6.542 6.542 0 0 0 6.55 6.55 6.542 6.542 0 0 0 6.551-6.55 6.542 6.542 0 0 0-6.55-6.55z"/>
        </g>
        <g transform="translate(72.198)">
            <ellipse cx="24.527" cy="24.527" fill="#187FB8" rx="24.527" ry="24.527"/>
            <path fill="#FFF" d="M16.153 21.463h3.527v11.175h-3.527V21.463zm13.164-.108c2.506 0 4.476 1.608 4.476 5.07v6.213h-4v-5.783c0-1.514-.625-2.547-2-2.547-1.053 0-1.638.697-1.91 1.37-.103.24-.087.577-.087.913v6.047h-3.962s.051-10.244 0-11.175h3.962v1.754c.234-.767 1.5-1.862 3.52-1.862zm-11.465-5.167c1.3 0 2.1.834 2.126 1.937 0 1.082-.825 1.94-2.151 1.94h-.026c-1.276 0-2.104-.854-2.104-1.937 0-1.104.852-1.94 2.155-1.94z"/>
        </g>
    </g>
</svg>
