<svg xmlns="http://www.w3.org/2000/svg" width="122" height="110" viewBox="0 0 122 110">
    <g fill="none" fill-rule="evenodd">
        <g transform="translate(3.5 8)">
            <ellipse cx="49.053" cy="49.183" fill="#FFF" stroke="#252525" stroke-width="6" rx="49.053" ry="49.053"/>
            <path fill="#252525" d="M54.826 49.513a8.06 8.06 0 0 0 8.062-8.062 8.06 8.06 0 0 0-8.062-8.063 8.06 8.06 0 0 0-8.063 8.063 8.06 8.06 0 0 0 8.063 8.062zm-18.141-4.031v-6.047h-4.032v6.047h-6.046v4.031h6.046v6.047h4.032v-6.047h6.047v-4.031h-6.047zm18.14 8.062c-5.381 0-16.125 2.701-16.125 8.063v4.031h32.25v-4.031c0-5.362-10.743-8.063-16.124-8.063z"/>
        </g>
        <g transform="translate(72.698)">
            <ellipse cx="24.527" cy="24.527" fill="#187FB8" rx="24.527" ry="24.527"/>
            <path fill="#FFF" d="M16.153 21.463h3.527v11.175h-3.527V21.463zm13.164-.108c2.506 0 4.476 1.608 4.476 5.07v6.213h-4v-5.783c0-1.514-.625-2.547-2-2.547-1.053 0-1.638.697-1.91 1.37-.103.24-.087.577-.087.913v6.047h-3.962s.051-10.244 0-11.175h3.962v1.754c.234-.767 1.5-1.862 3.52-1.862zm-11.465-5.167c1.3 0 2.1.834 2.126 1.937 0 1.082-.825 1.94-2.151 1.94h-.026c-1.276 0-2.104-.854-2.104-1.937 0-1.104.852-1.94 2.155-1.94z"/>
        </g>
    </g>
</svg>
